<?xml version="1.0" encoding="utf-8"?>
<!-- Generator: Adobe Illustrator 15.0.0, SVG Export Plug-In  -->
<!DOCTYPE svg PUBLIC "-//W3C//DTD SVG 1.1//EN" "http://www.w3.org/Graphics/SVG/1.1/DTD/svg11.dtd" [
	<!ENTITY ns_flows "http://ns.adobe.com/Flows/1.0/">
]>
<svg version="1.1"
	 xmlns="http://www.w3.org/2000/svg" xmlns:xlink="http://www.w3.org/1999/xlink" xmlns:a="http://ns.adobe.com/AdobeSVGViewerExtensions/3.0/"
	 x="0px" y="0px" width="64px" height="52px" viewBox="0 0 64 52" enable-background="new 0 0 64 52" xml:space="preserve">
<defs>
</defs>
<g>
	<defs>
		<rect id="SVGID_1_" width="64" height="51.945"/>
	</defs>
	<clipPath id="SVGID_2_">
		<use xlink:href="#SVGID_1_"  overflow="visible"/>
	</clipPath>
	<path clip-path="url(#SVGID_2_)" fill="#FFFFFF" d="M43.531,0.003c5.086-0.09,7.793,1.763,10.378,4.12
		c2.194-0.189,5.047-1.415,6.728-2.268c0.545-0.298,1.09-0.596,1.635-0.894c-0.961,2.594-2.262,4.623-4.261,6.164
		c-0.444,0.342-0.885,0.804-1.442,1.022v0.032c2.851-0.03,5.201-1.315,7.434-2.012v0.032c-1.174,1.864-2.761,3.754-4.453,5.109
		c-0.684,0.543-1.367,1.086-2.051,1.629c0.037,3.017-0.044,5.896-0.607,8.431c-3.279,14.737-11.968,24.743-25.722,29.03
		c-4.939,1.539-12.92,2.17-18.579,0.766c-2.806-0.695-5.341-1.48-7.72-2.521c-1.321-0.578-2.545-1.203-3.715-1.916
		C0.769,46.491,0.384,46.257,0,46.023c1.276,0.037,2.769,0.39,4.196,0.16c1.291-0.209,2.557-0.154,3.747-0.416
		c2.971-0.651,5.608-1.514,7.88-2.843c1.102-0.646,2.773-1.401,3.556-2.331c-1.475,0.025-2.812-0.316-3.908-0.703
		c-4.248-1.5-6.72-4.257-8.328-8.398c1.287,0.141,4.994,0.477,5.861-0.256c-1.62-0.09-3.178-1.026-4.292-1.725
		c-3.416-2.139-6.203-5.724-6.182-11.241c0.449,0.212,0.897,0.425,1.345,0.638c0.859,0.362,1.731,0.556,2.755,0.766
		c0.433,0.09,1.297,0.344,1.794,0.16H8.36c-0.661-0.769-1.738-1.282-2.403-2.107c-2.192-2.725-4.246-6.919-2.946-11.913
		C3.34,4.549,3.863,3.43,4.42,2.398C4.441,2.409,4.463,2.42,4.484,2.43c0.255,0.535,0.824,0.926,1.185,1.373
		C6.79,5.191,8.17,6.439,9.578,7.54c4.795,3.75,9.113,6.054,16.048,7.76c1.759,0.433,3.793,0.764,5.894,0.767
		c-0.59-1.719-0.401-4.5,0.064-6.164c1.169-4.183,3.707-7.198,7.432-8.814c0.891-0.386,1.879-0.668,2.914-0.894
		C42.464,0.131,42.997,0.067,43.531,0.003"/>
</g>
</svg>
