<?xml version="1.0" encoding="utf-8"?>
<!-- Generator: Adobe Illustrator 15.0.0, SVG Export Plug-In  -->
<!DOCTYPE svg PUBLIC "-//W3C//DTD SVG 1.1//EN" "http://www.w3.org/Graphics/SVG/1.1/DTD/svg11.dtd" [
	<!ENTITY ns_flows "http://ns.adobe.com/Flows/1.0/">
]>
<svg version="1.1"
	 xmlns="http://www.w3.org/2000/svg" xmlns:xlink="http://www.w3.org/1999/xlink" xmlns:a="http://ns.adobe.com/AdobeSVGViewerExtensions/3.0/"
	 x="0px" y="0px" width="50px" height="50px" viewBox="-0.06 -10.167 50 50" enable-background="new -0.06 -10.167 50 50"
	 xml:space="preserve">
<defs>
</defs>
<polygon fill="#2BA9FE" points="21.303,4.121 21.303,4.121 0,25.425 4.124,29.547 25.426,8.244 45.76,28.575 49.881,24.454 
	25.426,0 "/>
</svg>
