<?xml version="1.0" encoding="utf-8"?>
<!-- Generator: Adobe Illustrator 15.0.0, SVG Export Plug-In  -->
<!DOCTYPE svg PUBLIC "-//W3C//DTD SVG 1.1//EN" "http://www.w3.org/Graphics/SVG/1.1/DTD/svg11.dtd" [
	<!ENTITY ns_flows "http://ns.adobe.com/Flows/1.0/">
]>
<svg version="1.1"
	 xmlns="http://www.w3.org/2000/svg" xmlns:xlink="http://www.w3.org/1999/xlink" xmlns:a="http://ns.adobe.com/AdobeSVGViewerExtensions/3.0/"
	 x="0px" y="0px" width="45px" height="73px" viewBox="0 0 45 73" enable-background="new 0 0 45 73" xml:space="preserve">
<defs>
</defs>
<g>
	<defs>
		<rect id="SVGID_1_" width="44.737" height="73.115"/>
	</defs>
	<clipPath id="SVGID_2_">
		<use xlink:href="#SVGID_1_"  overflow="visible"/>
	</clipPath>
	<path clip-path="url(#SVGID_2_)" fill="#FFFFFF" d="M20.583,68.704l6.959-4.559c0.36-0.236,0.867-0.309,1.296-0.183l8.144,2.387
		c0.862,0.252,1.836-0.302,1.71-0.972L27.846,12.054c-0.088-0.467-0.693-0.769-1.352-0.675L8.796,13.908
		c-0.658,0.094-1.121,0.548-1.033,1.015l10.849,53.333C18.738,68.925,19.858,69.179,20.583,68.704"/>
	<path clip-path="url(#SVGID_2_)" fill="none" stroke="#147AC5" stroke-miterlimit="10" d="M20.583,68.704l6.959-4.559
		c0.36-0.236,0.867-0.309,1.296-0.183l8.144,2.387c0.862,0.252,1.836-0.302,1.71-0.972L27.846,12.054
		c-0.088-0.467-0.693-0.769-1.352-0.675L8.796,13.908c-0.658,0.094-1.121,0.548-1.033,1.015l10.849,53.333
		C18.738,68.925,19.858,69.179,20.583,68.704z"/>
	<path clip-path="url(#SVGID_2_)" fill="#FFFFFF" d="M21.762,72.371l-6.959-4.56c-0.361-0.235-0.868-0.308-1.296-0.182l-8.144,2.386
		c-0.862,0.252-1.836-0.301-1.71-0.971L14.5,15.721c0.088-0.467,0.693-0.769,1.351-0.675l17.698,2.529
		c0.658,0.094,1.121,0.548,1.033,1.015L23.733,71.923C23.608,72.592,22.487,72.846,21.762,72.371"/>
	<path clip-path="url(#SVGID_2_)" fill="none" stroke="#147AC5" stroke-miterlimit="10" d="M21.762,72.371l-6.959-4.56
		c-0.361-0.235-0.868-0.308-1.296-0.182l-8.144,2.386c-0.862,0.252-1.836-0.301-1.71-0.971L14.5,15.721
		c0.088-0.467,0.693-0.769,1.351-0.675l17.698,2.529c0.658,0.094,1.121,0.548,1.033,1.015L23.733,71.923
		C23.608,72.592,22.487,72.846,21.762,72.371z"/>
	<path clip-path="url(#SVGID_2_)" fill="#7DACC9" d="M23.918,0.916l1.105-0.551c1.481-0.739,3.28-0.329,4.295,0.98l0.757,0.976
		c0.668,0.862,1.702,1.36,2.792,1.345l1.235-0.017c1.655-0.023,3.097,1.127,3.443,2.747l0.259,1.207
		c0.228,1.067,0.943,1.964,1.933,2.423l1.119,0.521c1.502,0.698,2.302,2.359,1.912,3.969l-0.291,1.2
		c-0.258,1.06-0.002,2.178,0.688,3.022l0.783,0.955c1.05,1.28,1.05,3.124,0,4.405l-0.783,0.955c-0.69,0.843-0.946,1.962-0.688,3.021
		l0.291,1.2c0.39,1.61-0.41,3.271-1.912,3.969l-1.119,0.521c-0.989,0.459-1.705,1.357-1.933,2.423l-0.259,1.207
		c-0.347,1.62-1.788,2.771-3.443,2.747l-1.235-0.017c-1.09-0.015-2.124,0.483-2.792,1.345l-0.757,0.977
		c-1.015,1.309-2.813,1.719-4.295,0.979l-1.105-0.551c-0.976-0.486-2.123-0.486-3.099,0l-1.106,0.551
		c-1.482,0.739-3.279,0.329-4.294-0.979l-0.757-0.977c-0.668-0.861-1.702-1.359-2.792-1.345l-1.235,0.017
		c-1.656,0.023-3.098-1.127-3.444-2.747l-0.259-1.207C6.704,35.121,5.989,34.223,5,33.764l-1.12-0.521
		c-1.502-0.698-2.302-2.359-1.911-3.969l0.291-1.2c0.257-1.059,0.002-2.178-0.69-3.021l-0.783-0.955c-1.05-1.281-1.05-3.125,0-4.405
		l0.783-0.955c0.692-0.844,0.947-1.962,0.69-3.022l-0.291-1.2c-0.391-1.61,0.409-3.271,1.911-3.969L5,10.026
		C5.989,9.567,6.704,8.67,6.932,7.603l0.259-1.207c0.346-1.62,1.788-2.77,3.444-2.747l1.235,0.017
		c1.09,0.015,2.124-0.483,2.792-1.345l0.757-0.976c1.015-1.309,2.812-1.719,4.294-0.98l1.106,0.551
		C21.795,1.402,22.942,1.402,23.918,0.916"/>
	<path clip-path="url(#SVGID_2_)" fill="#FFFFFF" d="M40.021,21.895c0,9.749-7.903,17.652-17.652,17.652
		c-9.748,0-17.651-7.903-17.651-17.652S12.62,4.243,22.368,4.243C32.117,4.243,40.021,12.146,40.021,21.895"/>
	<circle clip-path="url(#SVGID_2_)" fill="none" stroke="#147AC5" stroke-miterlimit="10" cx="22.369" cy="21.895" r="17.652"/>
	<path clip-path="url(#SVGID_2_)" fill="#147AC5" d="M20.668,27.087l-0.111,0.094c-0.237,0.201-0.592,0.172-0.793-0.064
		l-4.081-4.806c-0.202-0.236-0.173-0.591,0.064-0.792l0.111-0.095c0.237-0.201,0.592-0.172,0.793,0.065l4.082,4.805
		C20.934,26.531,20.905,26.886,20.668,27.087"/>
	<path clip-path="url(#SVGID_2_)" fill="#147AC5" d="M29.169,17.578l0.104,0.103c0.22,0.22,0.22,0.576,0,0.796l-8.653,8.649
		c-0.219,0.22-0.575,0.22-0.795,0l-0.103-0.103c-0.22-0.22-0.22-0.576,0-0.796l8.653-8.649
		C28.593,17.357,28.949,17.357,29.169,17.578"/>
</g>
</svg>
